\relax 
\@writefile{toc}{\contentsline {section}{\numberline {1}Probability observation}{1}}
\@writefile{toc}{\contentsline {subsection}{\numberline {1.1}What do you think happens when you start with values $n_a = n_b = 1$ ?}{1}}
\@writefile{toc}{\contentsline {subsection}{\numberline {1.2}Simulate several times the population and observe the limit of ${\begingroup n_a\endgroup \over n_a + n_b}$ ?}{1}}
\@writefile{toc}{\contentsline {subsection}{\numberline {1.3}Histogram of observed values (30 bins, 10000 experimentations)}{2}}
\@writefile{toc}{\contentsline {subsection}{\numberline {1.4}What happens if $n_a = 2$ and $n_b = 1$}{2}}
\@writefile{toc}{\contentsline {subsection}{\numberline {1.5}What is the impact of initial state of the population ?}{3}}
\@writefile{lof}{\contentsline {figure}{\numberline {1}{\ignorespaces Probabilities of going to city A with intial $n_b = 1000$}}{3}}
\@writefile{toc}{\contentsline {subsection}{\numberline {1.6}OPT : With $n_a = n_b = 1$. Compute the distribution of the proportion after n steps and then conclude on the limit}{3}}
\@writefile{toc}{\contentsline {subsection}{\numberline {1.7}Compare the results with your first intuition}{3}}
\@writefile{toc}{\contentsline {section}{\numberline {2}Appendix}{4}}
\@writefile{toc}{\contentsline {subsection}{\numberline {2.1}Question 2 - simulation of immigration}{4}}
\newlabel{20 Samples of probability limits}{{2.1}{4}}
